^D:\AAA - FACULTATE\FACULTATE ANUL II\WORKSPACE IP\TEMA IP # 3 - SLIDING WINDOW PROTOCOL\TEMA IP 3 - SLIDING WINDOW\TEMA IP 3 - SLIDING WINDOW\MAIN.CPP
D:\AAA - FACULTATE\FACULTATE ANUL II\WORKSPACE IP\TEMA IP # 3 - SLIDING WINDOW PROTOCOL\TEMA IP 3 - SLIDING WINDOW\TEMA IP 3 - SLIDING WINDOW\DEBUG\VC142.PDB
D:\AAA - FACULTATE\FACULTATE ANUL II\WORKSPACE IP\TEMA IP # 3 - SLIDING WINDOW PROTOCOL\TEMA IP 3 - SLIDING WINDOW\TEMA IP 3 - SLIDING WINDOW\DEBUG\VC142.IDB
D:\AAA - FACULTATE\FACULTATE ANUL II\WORKSPACE IP\TEMA IP # 3 - SLIDING WINDOW PROTOCOL\TEMA IP 3 - SLIDING WINDOW\TEMA IP 3 - SLIDING WINDOW\DEBUG\MAIN.OBJ
